<!-- Generated by IcoMoon.io -->
<svg version="1.1" xmlns="http://www.w3.org/2000/svg" width="512" height="512" viewBox="0 0 512 512">
<title></title>
<g id="icomoon-ignore">
</g>
<path d="M300.484 108.146c-17.921-6.254-36.945-9.504-56.512-9.504-45.552 0-88.38 17.658-120.594 49.748-66.484 66.246-66.484 174.036 0 240.282 32.222 32.058 75.050 49.757 120.594 49.757s88.371-17.658 120.577-49.757c32.214-32.090 49.945-74.745 49.945-120.166 0-19.649-3.324-38.804-9.734-56.808 0 0-92.255 37.496-97.801 39.775-13.626 5.563-29.137 2.156-39.488-8.244-10.17-10.286-12.968-25.655-7.389-38.936l40.401-96.147zM138.486 305.608c-0.189 1.317-0.872 2.476-1.925 3.291-1.045 0.807-2.378 1.144-3.686 0.962l-29.597-3.942c-2.716-0.387-4.608-2.88-4.246-5.563l1.9-14.284c0.362-2.683 2.864-4.625 5.579-4.246l29.597 3.942c1.309 0.173 2.501 0.864 3.292 1.892 0.798 1.062 1.16 2.378 0.971 3.661l-1.885 14.284zM139.621 226.238c0-17.781 13.799-32.189 30.847-32.189 17.024 0 30.823 14.399 30.823 32.189s-13.799 32.189-30.823 32.189c-17.049 0-30.847-14.407-30.847-32.189zM223.294 365.262c0 7.668-6.229 13.856-13.906 13.856h-23.566c-7.668 0-13.889-6.188-13.889-13.856v-23.467c0-7.652 6.22-13.873 13.889-13.873h23.565c7.677 0 13.906 6.221 13.906 13.873v23.467zM243.149 152.332l-25.483 17.221c-2.345 1.596-5.53 1.004-7.125-1.35l-8.376-12.276c-1.588-2.345-0.979-5.53 1.35-7.093l25.483-17.255c1.127-0.749 2.518-1.029 3.843-0.815 1.333 0.247 2.518 1.061 3.283 2.156l8.376 12.317c1.605 2.312 1.004 5.505-1.35 7.093zM344.67 274.735c0.378-2.781 2.938-4.74 5.768-4.369l30.502 4.032c1.358 0.173 2.567 0.897 3.399 1.959 0.831 1.094 1.193 2.444 1.004 3.793l-1.966 14.704c-0.173 1.349-0.889 2.567-1.966 3.373-1.078 0.856-2.46 1.193-3.801 1.045l-30.494-4.098c-2.83-0.37-4.797-2.938-4.411-5.752l1.966-14.688zM278.695 281.211c6.69-3.76 15.164-1.416 18.925 5.241l35.382 62.534c1.81 3.233 2.263 7.010 1.276 10.541-0.979 3.522-3.357 6.525-6.566 8.344l-22.702 12.745c-6.681 3.76-15.156 1.382-18.925-5.274l-35.374-62.534c-1.819-3.233-2.279-7.010-1.267-10.541 0.971-3.522 3.34-6.558 6.542-8.344l22.71-12.712zM436.431 198.838c8.039 22.060 12.219 45.535 12.219 69.685 0 54.495-21.294 105.7-59.951 144.216-38.673 38.541-90.075 59.721-144.735 59.721-54.677 0-106.079-21.18-144.735-59.721-79.814-79.501-79.814-208.875 0-288.433 38.656-38.5 90.067-59.688 144.735-59.688 24.158 0 47.666 4.156 69.735 12.063l15.156-36.065c-86.603-31.975-187.793-13.28-257.404 56.026-95.266 94.938-95.266 248.856 0 343.752 95.299 94.946 249.728 94.946 345.019 0 69.561-69.282 88.33-170.029 56.306-256.31l-36.344 14.754zM511.086 120.175c-23.055-50.529-63.325-93.341-116.94-118.775-1.407-0.658-2.938-1.004-4.459-1.004-1.243 0-2.502 0.214-3.678 0.683-2.658 1.004-4.789 3.036-5.883 5.661l-88.512 210.718c-0.296 0.724-0.148 1.538 0.403 2.066 0.362 0.37 0.856 0.593 1.358 0.593 0.238 0 0.493-0.066 0.724-0.156l211.45-85.969c2.625-1.061 4.666-3.119 5.719-5.751 1.045-2.592 0.962-5.529-0.181-8.064zM367.808 161.868c0 2.814-2.296 5.126-5.126 5.126h-14.909c-2.83 0-5.135-2.312-5.135-5.126v-30.691c0-2.839 2.304-5.126 5.135-5.126h14.909c2.83 0 5.126 2.279 5.126 5.126v30.691zM392.204 75.867c0-12.474 8.804-22.595 19.674-22.595 10.886 0 19.69 10.121 19.69 22.595 0 12.499-8.796 22.653-19.69 22.653-10.861 0-19.674-10.153-19.674-22.653zM442.817 132.428l-25.474 17.255c-1.127 0.781-2.518 1.061-3.842 0.815-1.341-0.28-2.518-1.029-3.275-2.156l-8.368-12.317c-1.604-2.312-0.979-5.496 1.341-7.060l25.458-17.246c2.345-1.597 5.529-0.971 7.125 1.374l8.377 12.252c0.765 1.127 1.045 2.502 0.798 3.842-0.255 1.333-1.037 2.493-2.139 3.242z"></path>
</svg>
