<!-- Generated by IcoMoon.io -->
<svg version="1.1" xmlns="http://www.w3.org/2000/svg" width="681" height="512" viewBox="0 0 681 512">
<title></title>
<g id="icomoon-ignore">
</g>
<path fill="#000" d="M636.721 418.938l1.303-1.303c14.103-13.612 22.861-32.682 22.861-53.798 0-13.635-3.652-26.416-10.029-37.421l0.192 0.358-0.701-1.303 0.701-1.202c6.276-11.166 9.972-24.51 9.972-38.716 0-13.688-3.432-26.574-9.481-37.846l0.21 0.428-0.701-1.502 1.102-1.303c12.434-13.891 20.035-32.334 20.035-52.552 0-0.014 0-0.029 0-0.043v0.002c0-44.261-35.88-80.141-80.141-80.141v0c-3.553 0.020-7.032 0.238-10.452 0.643l0.435-0.042h-1.904l-0.701-1.903c-11.934-30.214-40.883-51.2-74.733-51.2-0.457 0-0.914 0.004-1.37 0.011l0.068-0.001c-11.296 0.023-22.037 2.379-31.772 6.612l0.517-0.201-2.204 0.901-31.956-67.418h-195.043l-21.037 44.278h-1.102c-54.298 13.262-93.966 61.49-93.966 118.984 0 0.079 0 0.159 0 0.238v-0.012c0.014 13.386 2.138 26.271 6.057 38.347l-0.247-0.881 0.901 2.605-2.705 0.601c-55.817 12.289-96.966 61.331-96.966 119.984 0 25.7 7.9 49.554 21.404 69.267l-0.271-0.419 0.801 1.202-0.601 1.303-55.297 116.505h681.197zM478.743 80.142c7.334-3.114 15.865-4.923 24.818-4.923 30.254 0 55.681 20.665 62.937 48.649l0.1 0.451 1.803 7.212 7.212-1.803c4.574-1.252 9.842-2.014 15.273-2.103l0.053-0.001c35.994 0.057 65.158 29.221 65.215 65.209v0.006c0.002 0.189 0.003 0.412 0.003 0.637 0 18.35-7.684 34.904-20.011 46.621l-0.028 0.026-4.508 4.308 3.406 5.209c6.742 10.113 10.76 22.543 10.76 35.913s-4.017 25.8-10.909 36.152l0.15-0.24-2.805 4.308 2.905 4.107c6.617 9.519 10.572 21.32 10.572 34.046 0 14.319-5.007 27.468-13.365 37.793l0.088-0.113-2.505 3.106-153.57-323.769zM346.41 14.927l-23.842 50.088-2.103-1.502c-3.644-2.602-7.868-5.256-12.242-7.669l-0.681-0.344-2.103-1.102 18.733-39.469zM252.345 14.927h54.996l-15.928 33.559-2.103-0.801c-11.866-4.144-25.545-6.538-39.783-6.538-1.969 0-3.926 0.046-5.873 0.136l0.275-0.010h-4.107zM249.54 56.099c0.079 0 0.173-0.001 0.268-0.001 24.358 0 46.817 8.133 64.808 21.83l-0.262-0.192 1.603 1.302-13.423 28.35-2.103-2.103c-13.639-12.301-31.793-19.826-51.706-19.826-42.712 0-77.336 34.624-77.336 77.336 0 13.788 3.608 26.734 9.933 37.944l-0.201-0.387 2.404 4.508-5.009-0.901c-7.006-1.404-15.059-2.207-23.299-2.207-1.776 0-3.544 0.037-5.302 0.111l0.251-0.008h-1.803l-0.3-1.502c-3.998-10.735-6.311-23.137-6.311-36.080 0-0.065 0-0.129 0-0.194v0.010c0-0.030 0-0.065 0-0.1 0-59.55 48.247-107.832 107.784-107.889h0.006zM295.721 121.815l-50.088 104.383h-1.703c-31.821-3.185-56.46-29.823-56.46-62.216 0-34.192 27.453-61.973 61.519-62.502l0.049-0.001c0.315-0.006 0.688-0.009 1.060-0.009 17.41 0 33.144 7.175 44.406 18.729l0.013 0.013zM48.987 324.371c0-0.024 0-0.051 0-0.079 0-59.475 48.214-107.69 107.689-107.69 30.081 0 57.281 12.334 76.82 32.219l1.318 1.318-14.525 30.354-2.505-3.205c-14.298-18.416-36.441-30.153-61.324-30.153-42.767 0-77.436 34.669-77.436 77.436s34.669 77.436 77.436 77.436c0.041 0 0.082 0 0.123 0h6.104l-14.325 30.053h-1.803c-54.948-5.721-97.438-51.722-97.572-107.675v-0.014zM212.675 296.623l-42.475 88.656h-1.202c-3.78 0.796-8.136 1.268-12.595 1.302h-0.026c-0.047 0-0.101 0-0.156 0-34.523 0-62.51-27.986-62.51-62.51s27.987-62.51 62.51-62.51c23.98 0 44.805 13.502 55.29 33.319l0.164 0.34zM23.543 496.974l42.675-90.159 2.505 2.604c10.162 10.464 22.134 19.103 35.421 25.427l0.743 0.318 2.304 1.102-28.751 60.106zM95.069 496.974l26.146-55.197 2.004 0.601c4.056 1.209 9.162 2.36 14.371 3.204l0.756 0.101h3.306l-24.043 50.789zM134.137 496.974l228.802-482.048h58.303l-0.601 3.506-213.675 478.641zM224.897 493.469l208.566-468.123 2.304 4.909 221.589 466.82h-433.963z"></path>
<path fill="#000" d="M547.664 163.088l-4.708 14.225c9.203 4.111 16.731 10.576 22.020 18.641l0.119 0.192 13.323-6.912c-7.33-11.628-17.845-20.659-30.321-25.982l-0.434-0.165z"></path>
<path fill="#000" d="M507.894 388.684h14.926v11.32h-14.926v-11.32z"></path>
<path fill="#000" d="M388.284 339.498h14.926v11.32h-14.926v-11.32z"></path>
<path fill="#000" d="M394.995 150.465h14.926v11.32h-14.926v-11.32z"></path>
<path fill="#000" d="M281.195 457.405h117.907v14.926h-117.908v-14.926z"></path>
</svg>
