<!-- Generated by IcoMoon.io -->
<svg version="1.1" xmlns="http://www.w3.org/2000/svg" width="512" height="512" viewBox="0 0 512 512">
<title></title>
<g id="icomoon-ignore">
</g>
<path fill="#000" d="M181.155 292.007c30.738-16.986 58.239-33.164 86.551-46.915 29.12-14.56 60.666-21.84 93.831-21.031 91.404 2.427 154.496 82.506 134.274 172.292-17.796 78.462-69.564 122.142-139.128 114.862-46.915-4.853-85.742-26.693-119.714-58.24-11.325-10.515-21.84-21.84-32.356-33.164-24.267-26.693-53.387-37.209-88.977-25.885-13.751 4.045-26.693 9.707-40.444 12.942-25.885 7.28-42.871-3.236-46.106-29.12-3.236-16.986-6.471-31.546-12.942-45.298s-4.854-28.311 7.28-39.635c12.133-11.325 25.075-8.897 42.062-3.236-12.133 8.089-26.693 16.986-17.796 29.12 11.325 15.369 23.457 26.693 14.56 47.724-1.618 4.853 7.28 8.089 12.942 8.897 7.28 1.618 13.751-1.618 21.031-4.045 42.871-14.56 84.124-11.325 122.95 11.325 25.076 14.56 49.342 30.738 73.608 46.915s50.151 26.693 80.079 25.885c25.075-0.809 45.298-11.325 59.858-30.738 50.959-67.137 13.751-158.541-67.946-170.674-27.502-4.044-54.195-1.618-80.079 9.706-25.075 10.515-49.342 22.649-76.844 27.502-8.089 1.618-15.369 3.236-26.693 0.809z"></path>
<path fill="#000" d="M319.474 195.75c-15.369-16.987-16.986-33.164-13.751-49.342 3.236-18.605 10.515-35.591 19.413-52.578 22.649-45.297 22.649-50.151 1.618-93.831 24.267 11.325 36.399 40.444 29.12 68.755-3.236 12.942-8.897 25.885-14.56 38.017-13.751 27.502-25.075 54.195-21.84 88.977z"></path>
<path fill="#000" d="M252.337 191.705c-17.796-21.031-19.413-33.164-5.662-54.195 11.325-17.796 24.266-33.973 38.018-54.195 2.426 16.177-3.236 26.693-11.325 36.4-16.178 21.031-33.973 41.253-21.031 71.991z"></path>
<path fill="#000" d="M422.202 97.875c-4.045 35.591-52.577 56.622-28.311 101.111-22.649-21.84-23.457-44.488-4.045-66.329 11.325-11.325 22.649-21.84 32.356-34.782z"></path>
<path fill="#000" d="M393.082 292.815c-1.618 6.471-4.853 11.325-12.133 9.707-8.897-2.426-17.796-5.662-17.796-16.178 0-5.662 6.471-9.707 12.942-8.089 9.707 0.809 16.178 4.853 16.986 14.56z"></path>
<path fill="#000" d="M401.98 321.935c-1.618 4.853-4.045 7.28-8.089 6.471-6.471-1.618-12.942-4.045-12.942-12.133 0-4.045 4.045-7.28 8.089-7.28 6.471 1.618 9.707 7.28 12.942 12.942z"></path>
<path fill="#000" d="M344.55 306.567c-4.853-2.426-11.325-3.236-12.133-9.707 0-4.045 4.045-6.471 8.089-6.471 5.662 0.809 11.325 4.045 12.133 9.707 0.809 4.045-4.045 6.471-8.089 6.471z"></path>
<path fill="#000" d="M368.816 263.696c-19.413-4.045-38.017-5.662-57.43 0-16.986 2.426-52.577 20.222-47.724 18.605s-27.502 11.325-27.502 11.325 0 0 0 0c-29.928 10.515-61.475 8.897-93.022 10.515 33.973 9.707 66.329 7.28 97.875-6.471 8.898-4.045 17.796-8.089 26.693-12.133 16.986-5.662 42.871-16.178 51.769-17.796s20.222-2.426 37.209 0c27.502 6.471 53.387 15.369 73.608 35.591-13.751-24.267-35.591-35.591-61.475-39.635z"></path>
</svg>
